<svg xmlns="http://www.w3.org/2000/svg" width="24" height="24" viewBox="0 0 24 24">
  <g fill="none" fill-rule="evenodd">
    <path fill="currentColor" d="m19 3c1.1 0 2 .9 2 2v14c0 1.1-.9 2-2 2h-14c-1.1 0-2-.9-2-2v-14c0-1.1.9-2 2-2zm-4.9471874 12.3412499.7890625 2.34375h2.4921875l-4.2578125-11.37499996h-2.171875l-4.23437502 11.37499996h2.4921875l.78125-2.34375zm-3.4765625-1.8984375 1.4140625-4.25781246 1.4296875 4.25781246z"/>
    <path d="m0 0h24v24h-24z"/>
  </g>
</svg>
